{
	"version": "1.0",
	"name": "EPS Admin App",
	"appID": "eps_admin",
	"location": "resources/eps_admin",
	"canvases": ["eps_admin-mainMenu", "eps_admin-login", "eps_admin-users","eps_admin-documents", "eps_admin-memos", "eps_admin-timesheets"],
	"maincanvas": "eps_admin-mainMenu",
	"mainmenubuttons": ["buttonLogin", "buttonUsers", "buttonDocuments", "buttonMemos", "buttonTimesheets"],
	"mainmenubuttontargets": ["eps_admin-login", "eps_admin-users","eps_admin-documents", "eps_admin-memos", "eps_admin-timesheets"],
	"scrolls": [],
	"plugins": ["none"],
	"mainMenuOverlayAllowed": "true",
	"overlays": ["none"],
	"mainMenuFlair": "eps_admin-login",
	"header": ["$??headerTitle?appHeaderTitle?",
				"$??headerSubTitle?appHeaderSubTitle?",
				"$??menuVisible?appMenuToggle?",
				"$???collapseAll?",
				"$??headerButton?appInfoButton?"
  ]
}
